<?xml version="1.0" encoding="utf-8"?>
<!-- Generator: Adobe Illustrator 19.0.0, SVG Export Plug-In . SVG Version: 6.00 Build 0)  -->
<svg version="1.1" id="Layer_1" xmlns="http://www.w3.org/2000/svg" xmlns:xlink="http://www.w3.org/1999/xlink" x="0px" y="0px"
	 viewBox="0 0 40 40" style="enable-background:new 0 0 40 40;" xml:space="preserve">
<style type="text/css">
	.st0{fill:#ED1155;}
</style>
<g id="XMLID_2_">
	<path id="XMLID_3_" class="st0" d="M-43.5,7.5h-0.1l-5.8,3.1l-0.9-3.4l7.3-3.9h3.9v33.4h-4.4V7.5z"/>
</g>
<g id="XMLID_18_">
	<path id="XMLID_19_" class="st0" d="M-39.5,35.5V33l3.2-3.1c7.6-7.3,11.1-11.1,11.1-15.6c0-3-1.5-5.8-5.9-5.8c-2.7,0-5,1.4-6.3,2.5
		l-1.3-2.8c2.1-1.7,5-3,8.5-3c6.4,0,9.1,4.4,9.1,8.7c0,5.5-4,10-10.3,16l-2.4,2.2v0.1h13.4v3.4H-39.5z"/>
</g>
<path id="XMLID_22_" class="st0" d="M-22.3,30.6c1.1,0.7,3.6,1.8,6.3,1.8c4.9,0,6.4-3.1,6.4-5.5c0-4-3.6-5.6-7.3-5.6h-2.1v-2.9h2.1
	c2.8,0,6.3-1.4,6.3-4.8c0-2.3-1.4-4.3-5-4.3c-2.3,0-4.4,1-5.6,1.9l-1-2.8c1.5-1.1,4.3-2.2,7.4-2.2c5.6,0,8.1,3.3,8.1,6.7
	c0,2.9-1.7,5.4-5.2,6.6v0.1c3.5,0.7,6.3,3.3,6.3,7.3c0,4.5-3.5,8.5-10.3,8.5c-3.2,0-5.9-1-7.3-1.9L-22.3,30.6z"/>
<path id="XMLID_24_" class="st0" d="M-11.8,35v-7.7h-13.1v-2.5l12.6-18h4.1v17.5h4v3h-4V35H-11.8z M-11.8,24.3v-9.4
	c0-1.5,0-3,0.1-4.4h-0.1c-0.9,1.7-1.6,2.9-2.3,4.2l-6.9,9.6v0.1H-11.8z"/>
<path id="XMLID_27_" class="st0" d="M-6.3,9.8h-10.8l-1.1,7.3c0.7-0.1,1.3-0.2,2.3-0.2c2.2,0,4.3,0.5,6.1,1.5c2.2,1.3,4,3.7,4,7.3
	c0,5.5-4.4,9.6-10.5,9.6c-3.1,0-5.7-0.9-7-1.7l1-2.9c1.2,0.7,3.5,1.6,6,1.6c3.6,0,6.7-2.3,6.7-6.1c0-3.6-2.5-6.3-8.1-6.3
	c-1.6,0-2.9,0.2-3.9,0.3l1.8-13.6h13.5V9.8z"/>
<path id="XMLID_29_" class="st0" d="M-13.5,9.5c-0.8,0-1.8,0-2.9,0.2c-6,1-9.2,5.4-9.8,10h0.1c1.3-1.8,3.7-3.3,6.8-3.3
	c5,0,8.5,3.6,8.5,9.1c0,5.2-3.5,9.9-9.4,9.9c-6,0-10-4.7-10-12c0-5.6,2-9.9,4.8-12.7c2.3-2.3,5.5-3.7,9-4.2c1.1-0.2,2.1-0.2,2.8-0.2
	V9.5z M-14.6,25.7c0-4-2.3-6.5-5.8-6.5c-2.3,0-4.4,1.4-5.5,3.5c-0.3,0.4-0.4,1-0.4,1.7c0.1,4.6,2.2,8.1,6.2,8.1
	C-16.8,32.5-14.6,29.8-14.6,25.7z"/>
<path id="XMLID_32_" class="st0" d="M-5.7,6.8v2.5L-17.9,35h-4l12.2-25V10h-13.8V6.8H-5.7z"/>
<path id="XMLID_34_" class="st0" d="M2.9,27.3c0-3.6,2.1-6.1,5.6-7.6l0-0.1C5.4,18.1,4,15.7,4,13.2c0-4.5,3.8-7.5,8.7-7.5
	c5.5,0,8.2,3.4,8.2,6.9c0,2.4-1.2,5-4.6,6.6v0.1c3.5,1.4,5.7,3.9,5.7,7.3c0,4.9-4.2,8.2-9.6,8.2C6.5,34.9,2.9,31.4,2.9,27.3z
	 M18.1,27.1c0-3.4-2.4-5.1-6.2-6.2c-3.3,1-5.1,3.1-5.1,5.8c-0.1,2.9,2,5.4,5.6,5.4C15.9,32.1,18.1,30,18.1,27.1z M7.6,13
	c0,2.8,2.1,4.3,5.4,5.2c2.4-0.8,4.3-2.6,4.3-5.1c0-2.3-1.3-4.6-4.8-4.6C9.4,8.5,7.6,10.5,7.6,13z"/>
<path id="XMLID_38_" d="M197.5,67.9c0.8,0.1,1.8,0,3.1-0.1c2.2-0.3,4.3-1.2,5.9-2.7c1.9-1.7,3.2-4.2,3.7-7.5h-0.1
	c-1.6,1.9-3.8,3-6.6,3c-5.1,0-8.3-3.8-8.3-8.6c0-5.3,3.9-10,9.6-10c5.8,0,9.3,4.7,9.3,11.9c0,6.2-2.1,10.6-4.9,13.2
	c-2.2,2.1-5.2,3.4-8.2,3.8c-1.4,0.2-2.6,0.3-3.5,0.2V67.9z M198.9,51.7c0,3.5,2.1,6,5.4,6c2.6,0,4.6-1.3,5.6-3
	c0.2-0.3,0.3-0.8,0.3-1.4c0-4.8-1.8-8.5-5.8-8.5C201.2,44.8,198.9,47.7,198.9,51.7z"/>
</svg>
